{
  "total": 94854,
  "page": 1,
  "per_page": 10,
  "paging": {
    "next": "/tags/test/videos?page=2&per_page=10&sort=name&direction=asc&fields=uri%2Cname",
    "previous": null,
    "first": "/tags/test/videos?page=1&per_page=10&sort=name&direction=asc&fields=uri%2Cname",
    "last": "/tags/test/videos?page=9486&per_page=10&sort=name&direction=asc&fields=uri%2Cname"
  },
  "data": [
    {
      "uri": "/videos/103198534",
      "name": "^^^ Preisvergleich Nikon D3200 SLR-Digitalkamera"
    },
    {
      "uri": "/videos/79846914",
      "name": "　トンネル　Vdamu"
    },
    {
      "uri": "/videos/9154872",
      "name": "!!!andIWillAlwaysLoveYouBOLT-HITOMI!!!"
    },
    {
      "uri": "/videos/203335694",
      "name": "!DescubreTusPasiones!"
    },
    {
      "uri": "/videos/22376879",
      "name": "!lv intro"
    },
    {
      "uri": "/videos/90435560",
      "name": "\"             \""
    },
    {
      "uri": "/videos/27762264",
      "name": "\" Freedom \""
    },
    {
      "uri": "/videos/7959486",
      "name": "» huxley.hu « Frontier Betatest Character Creating"
    },
    {
      "uri": "/videos/8058565",
      "name": "» huxley.hu « Frontier Betatest Tutorial Map"
    },
    {
      "uri": "/videos/24606709",
      "name": "“ Kapıyı lutfen hızlı kapatınız!!!”"
    }
  ]
}